{
   "agent": "Tungstenite",
   "behavior": "OK",
   "behaviorClose": "OK",
   "case": 17,
   "closedByMe": true,
   "createStats": true,
   "createWirelog": true,
   "description": "Send ping without payload.",
   "droppedByMe": true,
   "duration": 1,
   "expectation": "Pong (with empty payload) is sent in reply to Ping. Clean close with normal code.",
   "expected": {
      "OK": [
         [
            "pong",
            ""
         ]
      ]
   },
   "expectedClose": {
      "closeCode": [
         1000
      ],
      "closedByMe": true,
      "requireClean": true
   },
   "failedByMe": false,
   "httpRequest": "GET /runCase?case=17&agent=Tungstenite HTTP/1.1\r\nUpgrade: websocket\r\nHost: localhost:9001\r\nConnection: Upgrade\r\nSec-WebSocket-Key: 3TAPCtVkZepv9oI+L1yiiw==\r\nSec-WebSocket-Version: 13\r\n\r\n",
   "httpResponse": "HTTP/1.1 101 Switching Protocols\r\nServer: AutobahnTestSuite/0.8.2-0.10.9\r\nX-Powered-By: AutobahnPython/0.10.9\r\nUpgrade: WebSocket\r\nConnection: Upgrade\r\nSec-WebSocket-Accept: +Pa19eVHi3bboSobl7s0BzMjvtY=\r\n\r\n",
   "id": "2.1",
   "isServer": true,
   "localCloseCode": 1000,
   "localCloseReason": null,
   "received": [
      [
         "pong",
         ""
      ]
   ],
   "remoteCloseCode": null,
   "remoteCloseReason": null,
   "reportCompressionRatio": false,
   "reportTime": false,
   "result": "Actual events match at least one expected.",
   "resultClose": "Connection was properly closed",
   "rxFrameStats": {
      "8": 1,
      "10": 1
   },
   "rxOctetStats": {
      "6": 2,
      "186": 1
   },
   "started": "2023-08-12T06:26:45.218Z",
   "trafficStats": null,
   "txFrameStats": {
      "8": 1,
      "9": 1
   },
   "txOctetStats": {
      "2": 1,
      "4": 1,
      "206": 1
   },
   "wasClean": true,
   "wasCloseHandshakeTimeout": false,
   "wasNotCleanReason": null,
   "wasOpenHandshakeTimeout": false,
   "wasServerConnectionDropTimeout": false,
   "wirelog": [
      [
         "RO",
         [
            186,
            "474554202f72756e436173653f636173653d3137266167656e743d54756e677374656e69746520485454502f312e310d0a557067726164653a20776562736f63 ..."
         ]
      ],
      [
         "TO",
         [
            206,
            "485454502f312e312031303120537769746368696e672050726f746f636f6c730d0a5365727665723a204175746f6261686e5465737453756974652f302e382e ..."
         ],
         false
      ],
      [
         "TF",
         [
            0,
            ""
         ],
         9,
         true,
         0,
         null,
         null,
         null,
         false
      ],
      [
         "TO",
         [
            2,
            "8900"
         ],
         false
      ],
      [
         "TI",
         1
      ],
      [
         "RO",
         [
            6,
            "8a80b8bebc72"
         ]
      ],
      [
         "RF",
         [
            0,
            ""
         ],
         10,
         true,
         0,
         true,
         "b8bebc72"
      ],
      [
         "TF",
         [
            2,
            "0x03e8"
         ],
         8,
         true,
         0,
         null,
         null,
         null,
         false
      ],
      [
         "TO",
         [
            4,
            "880203e8"
         ],
         false
      ],
      [
         "RO",
         [
            6,
            "8880643a453c"
         ]
      ],
      [
         "RF",
         [
            0,
            ""
         ],
         8,
         true,
         0,
         true,
         "643a453c"
      ]
   ]
}