{
   "agent": "Tungstenite",
   "behavior": "OK",
   "behaviorClose": "OK",
   "case": 46,
   "closedByMe": false,
   "createStats": true,
   "createWirelog": true,
   "description": "Send Pong fragmented into 2 fragments.",
   "droppedByMe": true,
   "duration": 1,
   "expectation": "Connection is failed immediately, since control message MUST NOT be fragmented.",
   "expected": {
      "OK": []
   },
   "expectedClose": {
      "closeCode": [
         1002
      ],
      "closedByMe": false,
      "requireClean": false
   },
   "failedByMe": false,
   "httpRequest": "GET /runCase?case=46&agent=Tungstenite HTTP/1.1\r\nUpgrade: websocket\r\nHost: localhost:9001\r\nConnection: Upgrade\r\nSec-WebSocket-Key: rxPs5eGvu8xpI+4n5Hv6Og==\r\nSec-WebSocket-Version: 13\r\n\r\n",
   "httpResponse": "HTTP/1.1 101 Switching Protocols\r\nServer: AutobahnTestSuite/0.8.2-0.10.9\r\nX-Powered-By: AutobahnPython/0.10.9\r\nUpgrade: WebSocket\r\nConnection: Upgrade\r\nSec-WebSocket-Accept: fv5LhacJD9IZl3tjLH0EkNDj17o=\r\n\r\n",
   "id": "5.2",
   "isServer": true,
   "localCloseCode": 1000,
   "localCloseReason": null,
   "received": [],
   "remoteCloseCode": 1002,
   "remoteCloseReason": null,
   "reportCompressionRatio": false,
   "reportTime": false,
   "result": "Actual events match at least one expected.",
   "resultClose": "Connection was properly closed",
   "rxFrameStats": {
      "8": 1
   },
   "rxOctetStats": {
      "8": 1,
      "186": 1
   },
   "started": "2023-08-12T06:26:45.362Z",
   "trafficStats": null,
   "txFrameStats": {
      "0": 1,
      "8": 1,
      "10": 1
   },
   "txOctetStats": {
      "4": 1,
      "11": 2,
      "206": 1
   },
   "wasClean": true,
   "wasCloseHandshakeTimeout": false,
   "wasNotCleanReason": null,
   "wasOpenHandshakeTimeout": false,
   "wasServerConnectionDropTimeout": false,
   "wirelog": [
      [
         "RO",
         [
            186,
            "474554202f72756e436173653f636173653d3436266167656e743d54756e677374656e69746520485454502f312e310d0a557067726164653a20776562736f63 ..."
         ]
      ],
      [
         "TO",
         [
            206,
            "485454502f312e312031303120537769746368696e672050726f746f636f6c730d0a5365727665723a204175746f6261686e5465737453756974652f302e382e ..."
         ],
         false
      ],
      [
         "TF",
         [
            9,
            "fragment1"
         ],
         10,
         false,
         0,
         null,
         null,
         null,
         false
      ],
      [
         "TO",
         [
            11,
            "0a09667261676d656e7431"
         ],
         false
      ],
      [
         "TF",
         [
            9,
            "fragment2"
         ],
         0,
         true,
         0,
         null,
         null,
         null,
         false
      ],
      [
         "TO",
         [
            11,
            "8009667261676d656e7432"
         ],
         false
      ],
      [
         "KL",
         1
      ],
      [
         "RO",
         [
            8,
            "8882d9fc4274da16"
         ]
      ],
      [
         "RF",
         [
            2,
            "0x03ea"
         ],
         8,
         true,
         0,
         true,
         "d9fc4274"
      ],
      [
         "TF",
         [
            2,
            "0x03e8"
         ],
         8,
         true,
         0,
         null,
         null,
         null,
         false
      ],
      [
         "TO",
         [
            4,
            "880203e8"
         ],
         false
      ]
   ]
}