{
   "agent": "Tungstenite",
   "behavior": "OK",
   "behaviorClose": "OK",
   "case": 55,
   "closedByMe": false,
   "createStats": true,
   "createWirelog": true,
   "description": "Send unfragmented Text Message after Continuation Frame with FIN = true, where there is nothing to continue, sent in octet-wise chops.",
   "droppedByMe": true,
   "duration": 1,
   "expectation": "The connection is failed immediately, since there is no message to continue.",
   "expected": {
      "OK": []
   },
   "expectedClose": {
      "closeCode": [
         1002
      ],
      "closedByMe": false,
      "requireClean": false
   },
   "failedByMe": false,
   "httpRequest": "GET /runCase?case=55&agent=Tungstenite HTTP/1.1\r\nUpgrade: websocket\r\nHost: localhost:9001\r\nConnection: Upgrade\r\nSec-WebSocket-Key: 5pJ+5ykvBZK3JTOYaEn66Q==\r\nSec-WebSocket-Version: 13\r\n\r\n",
   "httpResponse": "HTTP/1.1 101 Switching Protocols\r\nServer: AutobahnTestSuite/0.8.2-0.10.9\r\nX-Powered-By: AutobahnPython/0.10.9\r\nUpgrade: WebSocket\r\nConnection: Upgrade\r\nSec-WebSocket-Accept: uD6+PoyxCxQl80XRwIcjtXWj5UQ=\r\n\r\n",
   "id": "5.11",
   "isServer": true,
   "localCloseCode": 1000,
   "localCloseReason": null,
   "received": [],
   "remoteCloseCode": 1002,
   "remoteCloseReason": null,
   "reportCompressionRatio": false,
   "reportTime": false,
   "result": "Actual events match at least one expected.",
   "resultClose": "Connection was properly closed",
   "rxFrameStats": {
      "8": 1
   },
   "rxOctetStats": {
      "8": 1,
      "186": 1
   },
   "started": "2023-08-12T06:26:45.463Z",
   "trafficStats": null,
   "txFrameStats": {
      "0": 1,
      "1": 1,
      "8": 1
   },
   "txOctetStats": {
      "1": 28,
      "206": 1
   },
   "wasClean": true,
   "wasCloseHandshakeTimeout": false,
   "wasNotCleanReason": null,
   "wasOpenHandshakeTimeout": false,
   "wasServerConnectionDropTimeout": false,
   "wirelog": [
      [
         "RO",
         [
            186,
            "474554202f72756e436173653f636173653d3535266167656e743d54756e677374656e69746520485454502f312e310d0a557067726164653a20776562736f63 ..."
         ]
      ],
      [
         "TO",
         [
            206,
            "485454502f312e312031303120537769746368696e672050726f746f636f6c730d0a5365727665723a204175746f6261686e5465737453756974652f302e382e ..."
         ],
         false
      ],
      [
         "TF",
         [
            24,
            "non-continuation payload"
         ],
         0,
         true,
         0,
         null,
         null,
         1,
         false
      ],
      [
         "TO",
         [
            1,
            "80"
         ],
         true
      ],
      [
         "TF",
         [
            13,
            "Hello, world!"
         ],
         1,
         true,
         0,
         null,
         null,
         1,
         false
      ],
      [
         "KL",
         1
      ],
      [
         "TO",
         [
            1,
            "18"
         ],
         true
      ],
      [
         "TO",
         [
            1,
            "6e"
         ],
         true
      ],
      [
         "TO",
         [
            1,
            "6f"
         ],
         true
      ],
      [
         "TO",
         [
            1,
            "6e"
         ],
         true
      ],
      [
         "TO",
         [
            1,
            "2d"
         ],
         true
      ],
      [
         "TO",
         [
            1,
            "63"
         ],
         true
      ],
      [
         "TO",
         [
            1,
            "6f"
         ],
         true
      ],
      [
         "TO",
         [
            1,
            "6e"
         ],
         true
      ],
      [
         "TO",
         [
            1,
            "74"
         ],
         true
      ],
      [
         "TO",
         [
            1,
            "69"
         ],
         true
      ],
      [
         "TO",
         [
            1,
            "6e"
         ],
         true
      ],
      [
         "TO",
         [
            1,
            "75"
         ],
         true
      ],
      [
         "TO",
         [
            1,
            "61"
         ],
         true
      ],
      [
         "TO",
         [
            1,
            "74"
         ],
         true
      ],
      [
         "TO",
         [
            1,
            "69"
         ],
         true
      ],
      [
         "TO",
         [
            1,
            "6f"
         ],
         true
      ],
      [
         "TO",
         [
            1,
            "6e"
         ],
         true
      ],
      [
         "TO",
         [
            1,
            "20"
         ],
         true
      ],
      [
         "TO",
         [
            1,
            "70"
         ],
         true
      ],
      [
         "TO",
         [
            1,
            "61"
         ],
         true
      ],
      [
         "TO",
         [
            1,
            "79"
         ],
         true
      ],
      [
         "TO",
         [
            1,
            "6c"
         ],
         true
      ],
      [
         "TO",
         [
            1,
            "6f"
         ],
         true
      ],
      [
         "TO",
         [
            1,
            "61"
         ],
         true
      ],
      [
         "TO",
         [
            1,
            "64"
         ],
         true
      ],
      [
         "TO",
         [
            1,
            "81"
         ],
         true
      ],
      [
         "TO",
         [
            1,
            "0d"
         ],
         true
      ],
      [
         "RO",
         [
            8,
            "8882e25c7a38e1b6"
         ]
      ],
      [
         "RF",
         [
            2,
            "0x03ea"
         ],
         8,
         true,
         0,
         true,
         "e25c7a38"
      ],
      [
         "TF",
         [
            2,
            "0x03e8"
         ],
         8,
         true,
         0,
         null,
         null,
         null,
         false
      ]
   ]
}