{
   "agent": "Tungstenite",
   "behavior": "OK",
   "behaviorClose": "OK",
   "case": 2,
   "closedByMe": true,
   "createStats": true,
   "createWirelog": true,
   "description": "Send text message message with payload of length 125.",
   "droppedByMe": true,
   "duration": 1,
   "expectation": "Receive echo'ed text message (with payload as sent). Clean close with normal code.",
   "expected": {
      "OK": [
         [
            "message",
            "**************************************************************** ...",
            false
         ]
      ]
   },
   "expectedClose": {
      "closeCode": [
         1000
      ],
      "closedByMe": true,
      "requireClean": true
   },
   "failedByMe": false,
   "httpRequest": "GET /runCase?case=2&agent=Tungstenite HTTP/1.1\r\nUpgrade: websocket\r\nHost: localhost:9001\r\nConnection: Upgrade\r\nSec-WebSocket-Key: GCE3w4z/NJyDdbbwj0BxBA==\r\nSec-WebSocket-Version: 13\r\n\r\n",
   "httpResponse": "HTTP/1.1 101 Switching Protocols\r\nServer: AutobahnTestSuite/0.8.2-0.10.9\r\nX-Powered-By: AutobahnPython/0.10.9\r\nUpgrade: WebSocket\r\nConnection: Upgrade\r\nSec-WebSocket-Accept: K0oxTxOwEzavbrFaRMPWSoglelo=\r\n\r\n",
   "id": "1.1.2",
   "isServer": true,
   "localCloseCode": 1000,
   "localCloseReason": null,
   "received": [
      [
         "message",
         "**************************************************************** ...",
         false
      ]
   ],
   "remoteCloseCode": null,
   "remoteCloseReason": null,
   "reportCompressionRatio": false,
   "reportTime": false,
   "result": "Actual events match at least one expected.",
   "resultClose": "Connection was properly closed",
   "rxFrameStats": {
      "1": 1,
      "8": 1
   },
   "rxOctetStats": {
      "6": 1,
      "131": 1,
      "185": 1
   },
   "started": "2023-08-12T06:26:45.151Z",
   "trafficStats": null,
   "txFrameStats": {
      "1": 1,
      "8": 1
   },
   "txOctetStats": {
      "4": 1,
      "127": 1,
      "206": 1
   },
   "wasClean": true,
   "wasCloseHandshakeTimeout": false,
   "wasNotCleanReason": null,
   "wasOpenHandshakeTimeout": false,
   "wasServerConnectionDropTimeout": false,
   "wirelog": [
      [
         "RO",
         [
            185,
            "474554202f72756e436173653f636173653d32266167656e743d54756e677374656e69746520485454502f312e310d0a557067726164653a20776562736f636b ..."
         ]
      ],
      [
         "TO",
         [
            206,
            "485454502f312e312031303120537769746368696e672050726f746f636f6c730d0a5365727665723a204175746f6261686e5465737453756974652f302e382e ..."
         ],
         false
      ],
      [
         "TF",
         [
            125,
            "**************************************************************** ..."
         ],
         1,
         true,
         0,
         null,
         null,
         null,
         false
      ],
      [
         "TO",
         [
            127,
            "817d2a2a2a2a2a2a2a2a2a2a2a2a2a2a2a2a2a2a2a2a2a2a2a2a2a2a2a2a2a2a2a2a2a2a2a2a2a2a2a2a2a2a2a2a2a2a2a2a2a2a2a2a2a2a2a2a2a2a2a2a2a2a ..."
         ],
         false
      ],
      [
         "KL",
         1
      ],
      [
         "RO",
         [
            131,
            "81fd1b9aad7331b0875931b0875931b0875931b0875931b0875931b0875931b0875931b0875931b0875931b0875931b0875931b0875931b0875931b0875931b0 ..."
         ]
      ],
      [
         "RF",
         [
            125,
            "**************************************************************** ..."
         ],
         1,
         true,
         0,
         true,
         "1b9aad73"
      ],
      [
         "TF",
         [
            2,
            "0x03e8"
         ],
         8,
         true,
         0,
         null,
         null,
         null,
         false
      ],
      [
         "TO",
         [
            4,
            "880203e8"
         ],
         false
      ],
      [
         "RO",
         [
            6,
            "88807a0b229e"
         ]
      ],
      [
         "RF",
         [
            0,
            ""
         ],
         8,
         true,
         0,
         true,
         "7a0b229e"
      ]
   ]
}