{
   "agent": "Tungstenite",
   "behavior": "OK",
   "behaviorClose": "OK",
   "case": 36,
   "closedByMe": false,
   "createStats": true,
   "createWirelog": true,
   "description": "Send frame with reserved non-control <b>Opcode = 4</b> and non-empty payload.",
   "droppedByMe": true,
   "duration": 1,
   "expectation": "The connection is failed immediately.",
   "expected": {
      "OK": []
   },
   "expectedClose": {
      "closeCode": [
         1002
      ],
      "closedByMe": false,
      "requireClean": false
   },
   "failedByMe": false,
   "httpRequest": "GET /runCase?case=36&agent=Tungstenite HTTP/1.1\r\nUpgrade: websocket\r\nHost: localhost:9001\r\nConnection: Upgrade\r\nSec-WebSocket-Key: OhL8P4LlhzSgDOwVpjvHQg==\r\nSec-WebSocket-Version: 13\r\n\r\n",
   "httpResponse": "HTTP/1.1 101 Switching Protocols\r\nServer: AutobahnTestSuite/0.8.2-0.10.9\r\nX-Powered-By: AutobahnPython/0.10.9\r\nUpgrade: WebSocket\r\nConnection: Upgrade\r\nSec-WebSocket-Accept: 0g9Ij3OGZZOESQ5BLKQ42Ri9Da8=\r\n\r\n",
   "id": "4.1.2",
   "isServer": true,
   "localCloseCode": 1000,
   "localCloseReason": null,
   "received": [],
   "remoteCloseCode": 1002,
   "remoteCloseReason": null,
   "reportCompressionRatio": false,
   "reportTime": false,
   "result": "Actual events match at least one expected.",
   "resultClose": "Connection was properly closed",
   "rxFrameStats": {
      "8": 1
   },
   "rxOctetStats": {
      "8": 1,
      "186": 1
   },
   "started": "2023-08-12T06:26:45.336Z",
   "trafficStats": null,
   "txFrameStats": {
      "4": 1,
      "8": 1
   },
   "txOctetStats": {
      "4": 1,
      "25": 1,
      "206": 1
   },
   "wasClean": true,
   "wasCloseHandshakeTimeout": false,
   "wasNotCleanReason": null,
   "wasOpenHandshakeTimeout": false,
   "wasServerConnectionDropTimeout": false,
   "wirelog": [
      [
         "RO",
         [
            186,
            "474554202f72756e436173653f636173653d3336266167656e743d54756e677374656e69746520485454502f312e310d0a557067726164653a20776562736f63 ..."
         ]
      ],
      [
         "TO",
         [
            206,
            "485454502f312e312031303120537769746368696e672050726f746f636f6c730d0a5365727665723a204175746f6261686e5465737453756974652f302e382e ..."
         ],
         false
      ],
      [
         "TF",
         [
            23,
            "reserved opcode payload"
         ],
         4,
         true,
         0,
         null,
         null,
         null,
         false
      ],
      [
         "TO",
         [
            25,
            "84177265736572766564206f70636f6465207061796c6f6164"
         ],
         false
      ],
      [
         "KL",
         1
      ],
      [
         "RO",
         [
            8,
            "88822e6d48972d87"
         ]
      ],
      [
         "RF",
         [
            2,
            "0x03ea"
         ],
         8,
         true,
         0,
         true,
         "2e6d4897"
      ],
      [
         "TF",
         [
            2,
            "0x03e8"
         ],
         8,
         true,
         0,
         null,
         null,
         null,
         false
      ],
      [
         "TO",
         [
            4,
            "880203e8"
         ],
         false
      ]
   ]
}