{
   "agent": "Tungstenite",
   "behavior": "OK",
   "behaviorClose": "OK",
   "case": 244,
   "closedByMe": true,
   "createStats": true,
   "createWirelog": true,
   "description": "Send close with invalid close code 2999",
   "droppedByMe": true,
   "duration": 1,
   "expectation": "Clean close with protocol error code or drop TCP",
   "expected": {
      "OK": []
   },
   "expectedClose": {
      "closeCode": [
         1002
      ],
      "closedByMe": true,
      "requireClean": false
   },
   "failedByMe": false,
   "httpRequest": "GET /runCase?case=244&agent=Tungstenite HTTP/1.1\r\nUpgrade: websocket\r\nHost: localhost:9001\r\nConnection: Upgrade\r\nSec-WebSocket-Key: 1/NqEoaxtz8FhOlM4y23Eg==\r\nSec-WebSocket-Version: 13\r\n\r\n",
   "httpResponse": "HTTP/1.1 101 Switching Protocols\r\nServer: AutobahnTestSuite/0.8.2-0.10.9\r\nX-Powered-By: AutobahnPython/0.10.9\r\nUpgrade: WebSocket\r\nConnection: Upgrade\r\nSec-WebSocket-Accept: GEWQPGkw7PEOZDYwxa39Dy+0YNo=\r\n\r\n",
   "id": "7.9.9",
   "isServer": true,
   "localCloseCode": 2999,
   "localCloseReason": null,
   "received": [],
   "remoteCloseCode": null,
   "remoteCloseReason": null,
   "reportCompressionRatio": false,
   "reportTime": false,
   "result": "Actual events match at least one expected.",
   "resultClose": "Connection was properly closed",
   "rxFrameStats": {
      "8": 1
   },
   "rxOctetStats": {
      "6": 1,
      "187": 1
   },
   "started": "2023-08-12T06:26:55.926Z",
   "trafficStats": null,
   "txFrameStats": {
      "8": 1
   },
   "txOctetStats": {
      "4": 1,
      "206": 1
   },
   "wasClean": true,
   "wasCloseHandshakeTimeout": false,
   "wasNotCleanReason": null,
   "wasOpenHandshakeTimeout": false,
   "wasServerConnectionDropTimeout": false,
   "wirelog": [
      [
         "RO",
         [
            187,
            "474554202f72756e436173653f636173653d323434266167656e743d54756e677374656e69746520485454502f312e310d0a557067726164653a20776562736f ..."
         ]
      ],
      [
         "TO",
         [
            206,
            "485454502f312e312031303120537769746368696e672050726f746f636f6c730d0a5365727665723a204175746f6261686e5465737453756974652f302e382e ..."
         ],
         false
      ],
      [
         "TF",
         [
            2,
            "0x0bb7"
         ],
         8,
         true,
         0,
         null,
         null,
         null,
         false
      ],
      [
         "TO",
         [
            4,
            "88020bb7"
         ],
         false
      ],
      [
         "KL",
         1
      ],
      [
         "RO",
         [
            6,
            "88809e752b6f"
         ]
      ],
      [
         "RF",
         [
            0,
            ""
         ],
         8,
         true,
         0,
         true,
         "9e752b6f"
      ]
   ]
}