{
   "agent": "Tungstenite",
   "behavior": "OK",
   "behaviorClose": "OK",
   "case": 179,
   "closedByMe": true,
   "createStats": true,
   "createWirelog": true,
   "description": "Send a text message with payload which is valid UTF-8 in one fragment.<br><br>Payload: 0xf19fbfbe",
   "droppedByMe": true,
   "duration": 1,
   "expectation": "The message is echo'ed back to us.",
   "expected": {
      "OK": [
         [
            "message",
            "\ud93f\udffe",
            false
         ]
      ]
   },
   "expectedClose": {
      "closeCode": [
         1000
      ],
      "closedByMe": true,
      "requireClean": true
   },
   "failedByMe": false,
   "httpRequest": "GET /runCase?case=179&agent=Tungstenite HTTP/1.1\r\nUpgrade: websocket\r\nHost: localhost:9001\r\nConnection: Upgrade\r\nSec-WebSocket-Key: iHtc/tAtyuPLJd08ys0PRA==\r\nSec-WebSocket-Version: 13\r\n\r\n",
   "httpResponse": "HTTP/1.1 101 Switching Protocols\r\nServer: AutobahnTestSuite/0.8.2-0.10.9\r\nX-Powered-By: AutobahnPython/0.10.9\r\nUpgrade: WebSocket\r\nConnection: Upgrade\r\nSec-WebSocket-Accept: WRPqOC7G46Gmz5lN3BSKn56/IFU=\r\n\r\n",
   "id": "6.22.11",
   "isServer": true,
   "localCloseCode": 1000,
   "localCloseReason": null,
   "received": [
      [
         "message",
         "\ud93f\udffe",
         false
      ]
   ],
   "remoteCloseCode": null,
   "remoteCloseReason": null,
   "reportCompressionRatio": false,
   "reportTime": false,
   "result": "Actual events match at least one expected.",
   "resultClose": "Connection was properly closed",
   "rxFrameStats": {
      "1": 1,
      "8": 1
   },
   "rxOctetStats": {
      "6": 1,
      "10": 1,
      "187": 1
   },
   "started": "2023-08-12T06:26:55.758Z",
   "trafficStats": null,
   "txFrameStats": {
      "1": 1,
      "8": 1
   },
   "txOctetStats": {
      "4": 1,
      "6": 1,
      "206": 1
   },
   "wasClean": true,
   "wasCloseHandshakeTimeout": false,
   "wasNotCleanReason": null,
   "wasOpenHandshakeTimeout": false,
   "wasServerConnectionDropTimeout": false,
   "wirelog": [
      [
         "RO",
         [
            187,
            "474554202f72756e436173653f636173653d313739266167656e743d54756e677374656e69746520485454502f312e310d0a557067726164653a20776562736f ..."
         ]
      ],
      [
         "TO",
         [
            206,
            "485454502f312e312031303120537769746368696e672050726f746f636f6c730d0a5365727665723a204175746f6261686e5465737453756974652f302e382e ..."
         ],
         false
      ],
      [
         "TF",
         [
            4,
            "\ud93f\udffe"
         ],
         1,
         true,
         0,
         null,
         null,
         null,
         false
      ],
      [
         "TO",
         [
            6,
            "8104f19fbfbe"
         ],
         false
      ],
      [
         "KL",
         0.5
      ],
      [
         "RO",
         [
            10,
            "8184a195b533500a0a8d"
         ]
      ],
      [
         "RF",
         [
            4,
            "\ud93f\udffe"
         ],
         1,
         true,
         0,
         true,
         "a195b533"
      ],
      [
         "TF",
         [
            2,
            "0x03e8"
         ],
         8,
         true,
         0,
         null,
         null,
         null,
         false
      ],
      [
         "TO",
         [
            4,
            "880203e8"
         ],
         false
      ],
      [
         "RO",
         [
            6,
            "88805c8386f3"
         ]
      ],
      [
         "RF",
         [
            0,
            ""
         ],
         8,
         true,
         0,
         true,
         "5c8386f3"
      ]
   ]
}