{
   "agent": "Tungstenite",
   "behavior": "OK",
   "behaviorClose": "OK",
   "case": 262,
   "closedByMe": true,
   "createStats": true,
   "createWirelog": true,
   "description": "Send fragmented text message message with message payload of length 4 * 2**20 (4M). Sent out in fragments of 4k.",
   "droppedByMe": true,
   "duration": 125,
   "expectation": "Receive echo'ed text message (with payload as sent).",
   "expected": {},
   "expectedClose": {
      "closeCode": [
         1000
      ],
      "closedByMe": true,
      "requireClean": true
   },
   "failedByMe": false,
   "httpRequest": "GET /runCase?case=262&agent=Tungstenite HTTP/1.1\r\nUpgrade: websocket\r\nHost: localhost:9001\r\nConnection: Upgrade\r\nSec-WebSocket-Key: Rzshj7KHuIdvlk5quQllMQ==\r\nSec-WebSocket-Version: 13\r\n\r\n",
   "httpResponse": "HTTP/1.1 101 Switching Protocols\r\nServer: AutobahnTestSuite/0.8.2-0.10.9\r\nX-Powered-By: AutobahnPython/0.10.9\r\nUpgrade: WebSocket\r\nConnection: Upgrade\r\nSec-WebSocket-Accept: J25CZdge9vuTUtWuQ5Yd8RWQtBU=\r\n\r\n",
   "id": "9.3.4",
   "isServer": true,
   "localCloseCode": 1000,
   "localCloseReason": null,
   "received": [],
   "remoteCloseCode": null,
   "remoteCloseReason": null,
   "reportCompressionRatio": false,
   "reportTime": true,
   "result": "Received text message of length 4194304.",
   "resultClose": "Connection was properly closed",
   "rxFrameStats": {
      "1": 1,
      "8": 1
   },
   "rxOctetStats": {
      "6": 1,
      "187": 1,
      "14480": 1,
      "22110": 1,
      "28960": 1,
      "65536": 63
   },
   "started": "2023-08-12T06:26:58.714Z",
   "trafficStats": null,
   "txFrameStats": {
      "0": 1024,
      "1": 1,
      "8": 1
   },
   "txOctetStats": {
      "2": 1,
      "4": 1,
      "206": 1,
      "4100": 1024
   },
   "wasClean": true,
   "wasCloseHandshakeTimeout": false,
   "wasNotCleanReason": null,
   "wasOpenHandshakeTimeout": false,
   "wasServerConnectionDropTimeout": false,
   "wirelog": [
      [
         "RO",
         [
            187,
            "474554202f72756e436173653f636173653d323632266167656e743d54756e677374656e69746520485454502f312e310d0a557067726164653a20776562736f ..."
         ]
      ],
      [
         "TO",
         [
            206,
            "485454502f312e312031303120537769746368696e672050726f746f636f6c730d0a5365727665723a204175746f6261686e5465737453756974652f302e382e ..."
         ],
         false
      ],
      [
         "TI",
         100
      ],
      [
         "TF",
         [
            2,
            "0x03e8"
         ],
         8,
         true,
         0,
         null,
         null,
         null,
         false
      ],
      [
         "TO",
         [
            4,
            "880203e8"
         ],
         false
      ],
      [
         "RO",
         [
            6,
            "8880ab93dd23"
         ]
      ],
      [
         "RF",
         [
            0,
            ""
         ],
         8,
         true,
         0,
         true,
         "ab93dd23"
      ]
   ]
}