{
   "agent": "Tungstenite",
   "behavior": "OK",
   "behaviorClose": "OK",
   "case": 47,
   "closedByMe": true,
   "createStats": true,
   "createWirelog": true,
   "description": "Send text Message fragmented into 2 fragments.",
   "droppedByMe": false,
   "duration": 1,
   "expectation": "Message is processed and echo'ed back to us.",
   "expected": {
      "OK": [
         [
            "message",
            "fragment1fragment2",
            false
         ]
      ]
   },
   "expectedClose": {
      "closeCode": [
         1000
      ],
      "closedByMe": true,
      "requireClean": true
   },
   "failedByMe": false,
   "httpRequest": "GET / HTTP/1.1\r\nUser-Agent: AutobahnTestSuite/0.8.2-0.10.9\r\nHost: 127.0.0.1:9002\r\nUpgrade: WebSocket\r\nConnection: Upgrade\r\nPragma: no-cache\r\nCache-Control: no-cache\r\nSec-WebSocket-Key: 61K/Z1Isdj8qRVVI6awhuw==\r\nSec-WebSocket-Version: 13\r\n\r\n",
   "httpResponse": "HTTP/1.1 101 Switching Protocols\r\nUpgrade: websocket\r\nConnection: Upgrade\r\nSec-WebSocket-Accept: 5Qozzs+NQvmmPv3FWua+ZLyU9XE=\r\n\r\n",
   "id": "5.3",
   "isServer": false,
   "localCloseCode": 1000,
   "localCloseReason": null,
   "received": [
      [
         "message",
         "fragment1fragment2",
         false
      ]
   ],
   "remoteCloseCode": null,
   "remoteCloseReason": null,
   "reportCompressionRatio": false,
   "reportTime": false,
   "result": "Actual events match at least one expected.",
   "resultClose": "Connection was properly closed",
   "rxFrameStats": {
      "1": 1,
      "8": 1
   },
   "rxOctetStats": {
      "2": 1,
      "20": 1,
      "129": 1
   },
   "started": "2023-08-16T08:59:08.095Z",
   "trafficStats": null,
   "txFrameStats": {
      "0": 1,
      "1": 1,
      "8": 1
   },
   "txOctetStats": {
      "8": 1,
      "15": 2,
      "240": 1
   },
   "wasClean": true,
   "wasCloseHandshakeTimeout": false,
   "wasNotCleanReason": null,
   "wasOpenHandshakeTimeout": false,
   "wasServerConnectionDropTimeout": false,
   "wirelog": [
      [
         "TO",
         [
            240,
            "474554202f20485454502f312e310d0a557365722d4167656e743a204175746f6261686e5465737453756974652f302e382e322d302e31302e390d0a486f7374 ..."
         ],
         false
      ],
      [
         "RO",
         [
            129,
            "485454502f312e312031303120537769746368696e672050726f746f636f6c730d0a557067726164653a20776562736f636b65740d0a436f6e6e656374696f6e ..."
         ]
      ],
      [
         "TF",
         [
            9,
            "fragment1"
         ],
         1,
         false,
         0,
         "6341ff6e",
         null,
         null,
         false
      ],
      [
         "TO",
         [
            15,
            "01896341ff6e05339e090e24911a52"
         ],
         false
      ],
      [
         "TF",
         [
            9,
            "fragment2"
         ],
         0,
         true,
         0,
         "6fb43562",
         null,
         null,
         false
      ],
      [
         "TO",
         [
            15,
            "80896fb4356209c6540502d15b165d"
         ],
         false
      ],
      [
         "TI",
         1
      ],
      [
         "RO",
         [
            20,
            "8112667261676d656e7431667261676d656e7432"
         ]
      ],
      [
         "RF",
         [
            18,
            "fragment1fragment2"
         ],
         1,
         true,
         0,
         false,
         null
      ],
      [
         "TF",
         [
            2,
            "0x03e8"
         ],
         8,
         true,
         0,
         "3dbada38",
         null,
         null,
         false
      ],
      [
         "TO",
         [
            8,
            "88823dbada383e52"
         ],
         false
      ],
      [
         "RO",
         [
            2,
            "8800"
         ]
      ],
      [
         "RF",
         [
            0,
            ""
         ],
         8,
         true,
         0,
         false,
         null
      ]
   ]
}