{
   "agent": "Tungstenite",
   "behavior": "OK",
   "behaviorClose": "OK",
   "case": 19,
   "closedByMe": true,
   "createStats": true,
   "createWirelog": true,
   "description": "Send ping with small binary (non UTF-8) payload.",
   "droppedByMe": false,
   "duration": 1,
   "expectation": "Pong with payload echo'ed is sent in reply to Ping. Clean close with normal code.",
   "expected": {
      "OK": [
         [
            "pong",
            "0x00fffefdfcfb00ff"
         ]
      ]
   },
   "expectedClose": {
      "closeCode": [
         1000
      ],
      "closedByMe": true,
      "requireClean": true
   },
   "failedByMe": false,
   "httpRequest": "GET / HTTP/1.1\r\nUser-Agent: AutobahnTestSuite/0.8.2-0.10.9\r\nHost: 127.0.0.1:9002\r\nUpgrade: WebSocket\r\nConnection: Upgrade\r\nPragma: no-cache\r\nCache-Control: no-cache\r\nSec-WebSocket-Key: UE/Nf3x7vsO9Go3nQ1BIKg==\r\nSec-WebSocket-Version: 13\r\n\r\n",
   "httpResponse": "HTTP/1.1 101 Switching Protocols\r\nUpgrade: websocket\r\nConnection: Upgrade\r\nSec-WebSocket-Accept: NCHvxoF8OV6Qmr//NwiDWH12p3M=\r\n\r\n",
   "id": "2.3",
   "isServer": false,
   "localCloseCode": 1000,
   "localCloseReason": null,
   "received": [
      [
         "pong",
         "0x00fffefdfcfb00ff"
      ]
   ],
   "remoteCloseCode": null,
   "remoteCloseReason": null,
   "reportCompressionRatio": false,
   "reportTime": false,
   "result": "Actual events match at least one expected.",
   "resultClose": "Connection was properly closed",
   "rxFrameStats": {
      "8": 1,
      "10": 1
   },
   "rxOctetStats": {
      "2": 1,
      "10": 1,
      "129": 1
   },
   "started": "2023-08-16T08:59:07.935Z",
   "trafficStats": null,
   "txFrameStats": {
      "8": 1,
      "9": 1
   },
   "txOctetStats": {
      "8": 1,
      "14": 1,
      "240": 1
   },
   "wasClean": true,
   "wasCloseHandshakeTimeout": false,
   "wasNotCleanReason": null,
   "wasOpenHandshakeTimeout": false,
   "wasServerConnectionDropTimeout": false,
   "wirelog": [
      [
         "TO",
         [
            240,
            "474554202f20485454502f312e310d0a557365722d4167656e743a204175746f6261686e5465737453756974652f302e382e322d302e31302e390d0a486f7374 ..."
         ],
         false
      ],
      [
         "RO",
         [
            129,
            "485454502f312e312031303120537769746368696e672050726f746f636f6c730d0a557067726164653a20776562736f636b65740d0a436f6e6e656374696f6e ..."
         ]
      ],
      [
         "TF",
         [
            8,
            "0x00fffefdfcfb00ff"
         ],
         9,
         true,
         0,
         "e6f45186",
         null,
         null,
         false
      ],
      [
         "TO",
         [
            14,
            "8988e6f45186e60baf7b1a0f5179"
         ],
         false
      ],
      [
         "TI",
         1
      ],
      [
         "RO",
         [
            10,
            "8a0800fffefdfcfb00ff"
         ]
      ],
      [
         "RF",
         [
            8,
            "0x00fffefdfcfb00ff"
         ],
         10,
         true,
         0,
         false,
         null
      ],
      [
         "TF",
         [
            2,
            "0x03e8"
         ],
         8,
         true,
         0,
         "99b73b6b",
         null,
         null,
         false
      ],
      [
         "TO",
         [
            8,
            "888299b73b6b9a5f"
         ],
         false
      ],
      [
         "RO",
         [
            2,
            "8800"
         ]
      ],
      [
         "RF",
         [
            0,
            ""
         ],
         8,
         true,
         0,
         false,
         null
      ]
   ]
}