{
   "agent": "Tungstenite",
   "behavior": "OK",
   "behaviorClose": "OK",
   "case": 16,
   "closedByMe": true,
   "createStats": true,
   "createWirelog": true,
   "description": "Send binary message message with payload of length 65536. Sent out data in chops of 997 octets.",
   "droppedByMe": false,
   "duration": 9,
   "expectation": "Receive echo'ed binary message (with payload as sent). Clean close with normal code.",
   "expected": {
      "OK": [
         [
            "message",
            "0xfefefefefefefefefefefefefefefefefefefefefefefefefefefefefefefefefefefefefefefefefefefefefefefefefefefefefefefefefefefefefefefefe ...",
            true
         ]
      ]
   },
   "expectedClose": {
      "closeCode": [
         1000
      ],
      "closedByMe": true,
      "requireClean": true
   },
   "failedByMe": false,
   "httpRequest": "GET / HTTP/1.1\r\nUser-Agent: AutobahnTestSuite/0.8.2-0.10.9\r\nHost: 127.0.0.1:9002\r\nUpgrade: WebSocket\r\nConnection: Upgrade\r\nPragma: no-cache\r\nCache-Control: no-cache\r\nSec-WebSocket-Key: 7K3afzNPs5JBZnZXJK/RQg==\r\nSec-WebSocket-Version: 13\r\n\r\n",
   "httpResponse": "HTTP/1.1 101 Switching Protocols\r\nUpgrade: websocket\r\nConnection: Upgrade\r\nSec-WebSocket-Accept: ByEdy6yap04qLBYwCQmm99M3j7E=\r\n\r\n",
   "id": "1.2.8",
   "isServer": false,
   "localCloseCode": 1000,
   "localCloseReason": null,
   "received": [
      [
         "message",
         "0xfefefefefefefefefefefefefefefefefefefefefefefefefefefefefefefefefefefefefefefefefefefefefefefefefefefefefefefefefefefefefefefefe ...",
         true
      ]
   ],
   "remoteCloseCode": null,
   "remoteCloseReason": null,
   "reportCompressionRatio": false,
   "reportTime": false,
   "result": "Actual events match at least one expected.",
   "resultClose": "Connection was properly closed",
   "rxFrameStats": {
      "2": 1,
      "8": 1
   },
   "rxOctetStats": {
      "2": 1,
      "10": 1,
      "129": 1,
      "65536": 1
   },
   "started": "2023-08-16T08:59:07.922Z",
   "trafficStats": null,
   "txFrameStats": {
      "2": 1,
      "8": 1
   },
   "txOctetStats": {
      "8": 1,
      "240": 1,
      "745": 1,
      "997": 65
   },
   "wasClean": true,
   "wasCloseHandshakeTimeout": false,
   "wasNotCleanReason": null,
   "wasOpenHandshakeTimeout": false,
   "wasServerConnectionDropTimeout": false,
   "wirelog": [
      [
         "TO",
         [
            240,
            "474554202f20485454502f312e310d0a557365722d4167656e743a204175746f6261686e5465737453756974652f302e382e322d302e31302e390d0a486f7374 ..."
         ],
         false
      ],
      [
         "RO",
         [
            129,
            "485454502f312e312031303120537769746368696e672050726f746f636f6c730d0a557067726164653a20776562736f636b65740d0a436f6e6e656374696f6e ..."
         ]
      ],
      [
         "TF",
         [
            65536,
            "0xfefefefefefefefefefefefefefefefefefefefefefefefefefefefefefefefefefefefefefefefefefefefefefefefefefefefefefefefefefefefefefefefe ..."
         ],
         2,
         true,
         0,
         "84a9300a",
         null,
         997,
         false
      ],
      [
         "TO",
         [
            997,
            "82ff000000000001000084a9300a7a57cef47a57cef47a57cef47a57cef47a57cef47a57cef47a57cef47a57cef47a57cef47a57cef47a57cef47a57cef47a57 ..."
         ],
         true
      ],
      [
         "KL",
         10
      ],
      [
         "TO",
         [
            997,
            "f47a57cef47a57cef47a57cef47a57cef47a57cef47a57cef47a57cef47a57cef47a57cef47a57cef47a57cef47a57cef47a57cef47a57cef47a57cef47a57ce ..."
         ],
         true
      ],
      [
         "TO",
         [
            997,
            "7a57cef47a57cef47a57cef47a57cef47a57cef47a57cef47a57cef47a57cef47a57cef47a57cef47a57cef47a57cef47a57cef47a57cef47a57cef47a57cef4 ..."
         ],
         true
      ],
      [
         "TO",
         [
            997,
            "57cef47a57cef47a57cef47a57cef47a57cef47a57cef47a57cef47a57cef47a57cef47a57cef47a57cef47a57cef47a57cef47a57cef47a57cef47a57cef47a ..."
         ],
         true
      ],
      [
         "TO",
         [
            997,
            "cef47a57cef47a57cef47a57cef47a57cef47a57cef47a57cef47a57cef47a57cef47a57cef47a57cef47a57cef47a57cef47a57cef47a57cef47a57cef47a57 ..."
         ],
         true
      ],
      [
         "TO",
         [
            997,
            "f47a57cef47a57cef47a57cef47a57cef47a57cef47a57cef47a57cef47a57cef47a57cef47a57cef47a57cef47a57cef47a57cef47a57cef47a57cef47a57ce ..."
         ],
         true
      ],
      [
         "TO",
         [
            997,
            "7a57cef47a57cef47a57cef47a57cef47a57cef47a57cef47a57cef47a57cef47a57cef47a57cef47a57cef47a57cef47a57cef47a57cef47a57cef47a57cef4 ..."
         ],
         true
      ],
      [
         "TO",
         [
            997,
            "57cef47a57cef47a57cef47a57cef47a57cef47a57cef47a57cef47a57cef47a57cef47a57cef47a57cef47a57cef47a57cef47a57cef47a57cef47a57cef47a ..."
         ],
         true
      ],
      [
         "TO",
         [
            997,
            "cef47a57cef47a57cef47a57cef47a57cef47a57cef47a57cef47a57cef47a57cef47a57cef47a57cef47a57cef47a57cef47a57cef47a57cef47a57cef47a57 ..."
         ],
         true
      ],
      [
         "TO",
         [
            997,
            "f47a57cef47a57cef47a57cef47a57cef47a57cef47a57cef47a57cef47a57cef47a57cef47a57cef47a57cef47a57cef47a57cef47a57cef47a57cef47a57ce ..."
         ],
         true
      ],
      [
         "TO",
         [
            997,
            "7a57cef47a57cef47a57cef47a57cef47a57cef47a57cef47a57cef47a57cef47a57cef47a57cef47a57cef47a57cef47a57cef47a57cef47a57cef47a57cef4 ..."
         ],
         true
      ],
      [
         "TO",
         [
            997,
            "57cef47a57cef47a57cef47a57cef47a57cef47a57cef47a57cef47a57cef47a57cef47a57cef47a57cef47a57cef47a57cef47a57cef47a57cef47a57cef47a ..."
         ],
         true
      ],
      [
         "TO",
         [
            997,
            "cef47a57cef47a57cef47a57cef47a57cef47a57cef47a57cef47a57cef47a57cef47a57cef47a57cef47a57cef47a57cef47a57cef47a57cef47a57cef47a57 ..."
         ],
         true
      ],
      [
         "TO",
         [
            997,
            "f47a57cef47a57cef47a57cef47a57cef47a57cef47a57cef47a57cef47a57cef47a57cef47a57cef47a57cef47a57cef47a57cef47a57cef47a57cef47a57ce ..."
         ],
         true
      ],
      [
         "TO",
         [
            997,
            "7a57cef47a57cef47a57cef47a57cef47a57cef47a57cef47a57cef47a57cef47a57cef47a57cef47a57cef47a57cef47a57cef47a57cef47a57cef47a57cef4 ..."
         ],
         true
      ],
      [
         "TO",
         [
            997,
            "57cef47a57cef47a57cef47a57cef47a57cef47a57cef47a57cef47a57cef47a57cef47a57cef47a57cef47a57cef47a57cef47a57cef47a57cef47a57cef47a ..."
         ],
         true
      ],
      [
         "TO",
         [
            997,
            "cef47a57cef47a57cef47a57cef47a57cef47a57cef47a57cef47a57cef47a57cef47a57cef47a57cef47a57cef47a57cef47a57cef47a57cef47a57cef47a57 ..."
         ],
         true
      ],
      [
         "TO",
         [
            997,
            "f47a57cef47a57cef47a57cef47a57cef47a57cef47a57cef47a57cef47a57cef47a57cef47a57cef47a57cef47a57cef47a57cef47a57cef47a57cef47a57ce ..."
         ],
         true
      ],
      [
         "TO",
         [
            997,
            "7a57cef47a57cef47a57cef47a57cef47a57cef47a57cef47a57cef47a57cef47a57cef47a57cef47a57cef47a57cef47a57cef47a57cef47a57cef47a57cef4 ..."
         ],
         true
      ],
      [
         "TO",
         [
            997,
            "57cef47a57cef47a57cef47a57cef47a57cef47a57cef47a57cef47a57cef47a57cef47a57cef47a57cef47a57cef47a57cef47a57cef47a57cef47a57cef47a ..."
         ],
         true
      ],
      [
         "TO",
         [
            997,
            "cef47a57cef47a57cef47a57cef47a57cef47a57cef47a57cef47a57cef47a57cef47a57cef47a57cef47a57cef47a57cef47a57cef47a57cef47a57cef47a57 ..."
         ],
         true
      ],
      [
         "TO",
         [
            997,
            "f47a57cef47a57cef47a57cef47a57cef47a57cef47a57cef47a57cef47a57cef47a57cef47a57cef47a57cef47a57cef47a57cef47a57cef47a57cef47a57ce ..."
         ],
         true
      ],
      [
         "TO",
         [
            997,
            "7a57cef47a57cef47a57cef47a57cef47a57cef47a57cef47a57cef47a57cef47a57cef47a57cef47a57cef47a57cef47a57cef47a57cef47a57cef47a57cef4 ..."
         ],
         true
      ],
      [
         "TO",
         [
            997,
            "57cef47a57cef47a57cef47a57cef47a57cef47a57cef47a57cef47a57cef47a57cef47a57cef47a57cef47a57cef47a57cef47a57cef47a57cef47a57cef47a ..."
         ],
         true
      ],
      [
         "TO",
         [
            997,
            "cef47a57cef47a57cef47a57cef47a57cef47a57cef47a57cef47a57cef47a57cef47a57cef47a57cef47a57cef47a57cef47a57cef47a57cef47a57cef47a57 ..."
         ],
         true
      ],
      [
         "TO",
         [
            997,
            "f47a57cef47a57cef47a57cef47a57cef47a57cef47a57cef47a57cef47a57cef47a57cef47a57cef47a57cef47a57cef47a57cef47a57cef47a57cef47a57ce ..."
         ],
         true
      ],
      [
         "TO",
         [
            997,
            "7a57cef47a57cef47a57cef47a57cef47a57cef47a57cef47a57cef47a57cef47a57cef47a57cef47a57cef47a57cef47a57cef47a57cef47a57cef47a57cef4 ..."
         ],
         true
      ],
      [
         "TO",
         [
            997,
            "57cef47a57cef47a57cef47a57cef47a57cef47a57cef47a57cef47a57cef47a57cef47a57cef47a57cef47a57cef47a57cef47a57cef47a57cef47a57cef47a ..."
         ],
         true
      ],
      [
         "TO",
         [
            997,
            "cef47a57cef47a57cef47a57cef47a57cef47a57cef47a57cef47a57cef47a57cef47a57cef47a57cef47a57cef47a57cef47a57cef47a57cef47a57cef47a57 ..."
         ],
         true
      ],
      [
         "TO",
         [
            997,
            "f47a57cef47a57cef47a57cef47a57cef47a57cef47a57cef47a57cef47a57cef47a57cef47a57cef47a57cef47a57cef47a57cef47a57cef47a57cef47a57ce ..."
         ],
         true
      ],
      [
         "TO",
         [
            997,
            "7a57cef47a57cef47a57cef47a57cef47a57cef47a57cef47a57cef47a57cef47a57cef47a57cef47a57cef47a57cef47a57cef47a57cef47a57cef47a57cef4 ..."
         ],
         true
      ],
      [
         "TO",
         [
            997,
            "57cef47a57cef47a57cef47a57cef47a57cef47a57cef47a57cef47a57cef47a57cef47a57cef47a57cef47a57cef47a57cef47a57cef47a57cef47a57cef47a ..."
         ],
         true
      ],
      [
         "TO",
         [
            997,
            "cef47a57cef47a57cef47a57cef47a57cef47a57cef47a57cef47a57cef47a57cef47a57cef47a57cef47a57cef47a57cef47a57cef47a57cef47a57cef47a57 ..."
         ],
         true
      ],
      [
         "TO",
         [
            997,
            "f47a57cef47a57cef47a57cef47a57cef47a57cef47a57cef47a57cef47a57cef47a57cef47a57cef47a57cef47a57cef47a57cef47a57cef47a57cef47a57ce ..."
         ],
         true
      ],
      [
         "TO",
         [
            997,
            "7a57cef47a57cef47a57cef47a57cef47a57cef47a57cef47a57cef47a57cef47a57cef47a57cef47a57cef47a57cef47a57cef47a57cef47a57cef47a57cef4 ..."
         ],
         true
      ],
      [
         "TO",
         [
            997,
            "57cef47a57cef47a57cef47a57cef47a57cef47a57cef47a57cef47a57cef47a57cef47a57cef47a57cef47a57cef47a57cef47a57cef47a57cef47a57cef47a ..."
         ],
         true
      ],
      [
         "TO",
         [
            997,
            "cef47a57cef47a57cef47a57cef47a57cef47a57cef47a57cef47a57cef47a57cef47a57cef47a57cef47a57cef47a57cef47a57cef47a57cef47a57cef47a57 ..."
         ],
         true
      ],
      [
         "TO",
         [
            997,
            "f47a57cef47a57cef47a57cef47a57cef47a57cef47a57cef47a57cef47a57cef47a57cef47a57cef47a57cef47a57cef47a57cef47a57cef47a57cef47a57ce ..."
         ],
         true
      ],
      [
         "TO",
         [
            997,
            "7a57cef47a57cef47a57cef47a57cef47a57cef47a57cef47a57cef47a57cef47a57cef47a57cef47a57cef47a57cef47a57cef47a57cef47a57cef47a57cef4 ..."
         ],
         true
      ],
      [
         "TO",
         [
            997,
            "57cef47a57cef47a57cef47a57cef47a57cef47a57cef47a57cef47a57cef47a57cef47a57cef47a57cef47a57cef47a57cef47a57cef47a57cef47a57cef47a ..."
         ],
         true
      ],
      [
         "TO",
         [
            997,
            "cef47a57cef47a57cef47a57cef47a57cef47a57cef47a57cef47a57cef47a57cef47a57cef47a57cef47a57cef47a57cef47a57cef47a57cef47a57cef47a57 ..."
         ],
         true
      ],
      [
         "TO",
         [
            997,
            "f47a57cef47a57cef47a57cef47a57cef47a57cef47a57cef47a57cef47a57cef47a57cef47a57cef47a57cef47a57cef47a57cef47a57cef47a57cef47a57ce ..."
         ],
         true
      ],
      [
         "TO",
         [
            997,
            "7a57cef47a57cef47a57cef47a57cef47a57cef47a57cef47a57cef47a57cef47a57cef47a57cef47a57cef47a57cef47a57cef47a57cef47a57cef47a57cef4 ..."
         ],
         true
      ],
      [
         "TO",
         [
            997,
            "57cef47a57cef47a57cef47a57cef47a57cef47a57cef47a57cef47a57cef47a57cef47a57cef47a57cef47a57cef47a57cef47a57cef47a57cef47a57cef47a ..."
         ],
         true
      ],
      [
         "TO",
         [
            997,
            "cef47a57cef47a57cef47a57cef47a57cef47a57cef47a57cef47a57cef47a57cef47a57cef47a57cef47a57cef47a57cef47a57cef47a57cef47a57cef47a57 ..."
         ],
         true
      ],
      [
         "TO",
         [
            997,
            "f47a57cef47a57cef47a57cef47a57cef47a57cef47a57cef47a57cef47a57cef47a57cef47a57cef47a57cef47a57cef47a57cef47a57cef47a57cef47a57ce ..."
         ],
         true
      ],
      [
         "TO",
         [
            997,
            "7a57cef47a57cef47a57cef47a57cef47a57cef47a57cef47a57cef47a57cef47a57cef47a57cef47a57cef47a57cef47a57cef47a57cef47a57cef47a57cef4 ..."
         ],
         true
      ],
      [
         "TO",
         [
            997,
            "57cef47a57cef47a57cef47a57cef47a57cef47a57cef47a57cef47a57cef47a57cef47a57cef47a57cef47a57cef47a57cef47a57cef47a57cef47a57cef47a ..."
         ],
         true
      ],
      [
         "TO",
         [
            997,
            "cef47a57cef47a57cef47a57cef47a57cef47a57cef47a57cef47a57cef47a57cef47a57cef47a57cef47a57cef47a57cef47a57cef47a57cef47a57cef47a57 ..."
         ],
         true
      ],
      [
         "TO",
         [
            997,
            "f47a57cef47a57cef47a57cef47a57cef47a57cef47a57cef47a57cef47a57cef47a57cef47a57cef47a57cef47a57cef47a57cef47a57cef47a57cef47a57ce ..."
         ],
         true
      ],
      [
         "TO",
         [
            997,
            "7a57cef47a57cef47a57cef47a57cef47a57cef47a57cef47a57cef47a57cef47a57cef47a57cef47a57cef47a57cef47a57cef47a57cef47a57cef47a57cef4 ..."
         ],
         true
      ],
      [
         "TO",
         [
            997,
            "57cef47a57cef47a57cef47a57cef47a57cef47a57cef47a57cef47a57cef47a57cef47a57cef47a57cef47a57cef47a57cef47a57cef47a57cef47a57cef47a ..."
         ],
         true
      ],
      [
         "TO",
         [
            997,
            "cef47a57cef47a57cef47a57cef47a57cef47a57cef47a57cef47a57cef47a57cef47a57cef47a57cef47a57cef47a57cef47a57cef47a57cef47a57cef47a57 ..."
         ],
         true
      ],
      [
         "TO",
         [
            997,
            "f47a57cef47a57cef47a57cef47a57cef47a57cef47a57cef47a57cef47a57cef47a57cef47a57cef47a57cef47a57cef47a57cef47a57cef47a57cef47a57ce ..."
         ],
         true
      ],
      [
         "TO",
         [
            997,
            "7a57cef47a57cef47a57cef47a57cef47a57cef47a57cef47a57cef47a57cef47a57cef47a57cef47a57cef47a57cef47a57cef47a57cef47a57cef47a57cef4 ..."
         ],
         true
      ],
      [
         "TO",
         [
            997,
            "57cef47a57cef47a57cef47a57cef47a57cef47a57cef47a57cef47a57cef47a57cef47a57cef47a57cef47a57cef47a57cef47a57cef47a57cef47a57cef47a ..."
         ],
         true
      ],
      [
         "TO",
         [
            997,
            "cef47a57cef47a57cef47a57cef47a57cef47a57cef47a57cef47a57cef47a57cef47a57cef47a57cef47a57cef47a57cef47a57cef47a57cef47a57cef47a57 ..."
         ],
         true
      ],
      [
         "TO",
         [
            997,
            "f47a57cef47a57cef47a57cef47a57cef47a57cef47a57cef47a57cef47a57cef47a57cef47a57cef47a57cef47a57cef47a57cef47a57cef47a57cef47a57ce ..."
         ],
         true
      ],
      [
         "TO",
         [
            997,
            "7a57cef47a57cef47a57cef47a57cef47a57cef47a57cef47a57cef47a57cef47a57cef47a57cef47a57cef47a57cef47a57cef47a57cef47a57cef47a57cef4 ..."
         ],
         true
      ],
      [
         "TO",
         [
            997,
            "57cef47a57cef47a57cef47a57cef47a57cef47a57cef47a57cef47a57cef47a57cef47a57cef47a57cef47a57cef47a57cef47a57cef47a57cef47a57cef47a ..."
         ],
         true
      ],
      [
         "TO",
         [
            997,
            "cef47a57cef47a57cef47a57cef47a57cef47a57cef47a57cef47a57cef47a57cef47a57cef47a57cef47a57cef47a57cef47a57cef47a57cef47a57cef47a57 ..."
         ],
         true
      ],
      [
         "TO",
         [
            997,
            "f47a57cef47a57cef47a57cef47a57cef47a57cef47a57cef47a57cef47a57cef47a57cef47a57cef47a57cef47a57cef47a57cef47a57cef47a57cef47a57ce ..."
         ],
         true
      ],
      [
         "TO",
         [
            997,
            "7a57cef47a57cef47a57cef47a57cef47a57cef47a57cef47a57cef47a57cef47a57cef47a57cef47a57cef47a57cef47a57cef47a57cef47a57cef47a57cef4 ..."
         ],
         true
      ],
      [
         "TO",
         [
            997,
            "57cef47a57cef47a57cef47a57cef47a57cef47a57cef47a57cef47a57cef47a57cef47a57cef47a57cef47a57cef47a57cef47a57cef47a57cef47a57cef47a ..."
         ],
         true
      ],
      [
         "TO",
         [
            997,
            "cef47a57cef47a57cef47a57cef47a57cef47a57cef47a57cef47a57cef47a57cef47a57cef47a57cef47a57cef47a57cef47a57cef47a57cef47a57cef47a57 ..."
         ],
         true
      ],
      [
         "TO",
         [
            745,
            "f47a57cef47a57cef47a57cef47a57cef47a57cef47a57cef47a57cef47a57cef47a57cef47a57cef47a57cef47a57cef47a57cef47a57cef47a57cef47a57ce ..."
         ],
         true
      ],
      [
         "RO",
         [
            65536,
            "827f0000000000010000fefefefefefefefefefefefefefefefefefefefefefefefefefefefefefefefefefefefefefefefefefefefefefefefefefefefefefe ..."
         ]
      ],
      [
         "RO",
         [
            10,
            "fefefefefefefefefefe"
         ]
      ],
      [
         "RF",
         [
            65536,
            "0xfefefefefefefefefefefefefefefefefefefefefefefefefefefefefefefefefefefefefefefefefefefefefefefefefefefefefefefefefefefefefefefefe ..."
         ],
         2,
         true,
         0,
         false,
         null
      ],
      [
         "TF",
         [
            2,
            "0x03e8"
         ],
         8,
         true,
         0,
         "4b169ea8",
         null,
         null,
         false
      ],
      [
         "TO",
         [
            8,
            "88824b169ea848fe"
         ],
         false
      ],
      [
         "RO",
         [
            2,
            "8800"
         ]
      ],
      [
         "RF",
         [
            0,
            ""
         ],
         8,
         true,
         0,
         false,
         null
      ]
   ]
}