{
   "agent": "Tungstenite",
   "behavior": "OK",
   "behaviorClose": "OK",
   "case": 52,
   "closedByMe": true,
   "createStats": true,
   "createWirelog": true,
   "description": "Send text Message fragmented into 2 fragments, one ping with payload in-between. Octets are sent in octet-wise chops.",
   "droppedByMe": false,
   "duration": 16,
   "expectation": "A pong is received, then the message is echo'ed back to us.",
   "expected": {
      "OK": [
         [
            "pong",
            "ping payload"
         ],
         [
            "message",
            "fragment1fragment2",
            false
         ]
      ]
   },
   "expectedClose": {
      "closeCode": [
         1000
      ],
      "closedByMe": true,
      "requireClean": true
   },
   "failedByMe": false,
   "httpRequest": "GET / HTTP/1.1\r\nUser-Agent: AutobahnTestSuite/0.8.2-0.10.9\r\nHost: 127.0.0.1:9002\r\nUpgrade: WebSocket\r\nConnection: Upgrade\r\nPragma: no-cache\r\nCache-Control: no-cache\r\nSec-WebSocket-Key: UU8gEQ8FLIPOMojixelMig==\r\nSec-WebSocket-Version: 13\r\n\r\n",
   "httpResponse": "HTTP/1.1 101 Switching Protocols\r\nUpgrade: websocket\r\nConnection: Upgrade\r\nSec-WebSocket-Accept: wsxGES2vdDZiOzmoYD5Ymeu28+g=\r\n\r\n",
   "id": "5.8",
   "isServer": false,
   "localCloseCode": 1000,
   "localCloseReason": null,
   "received": [
      [
         "pong",
         "ping payload"
      ],
      [
         "message",
         "fragment1fragment2",
         false
      ]
   ],
   "remoteCloseCode": null,
   "remoteCloseReason": null,
   "reportCompressionRatio": false,
   "reportTime": false,
   "result": "Actual events match at least one expected.",
   "resultClose": "Connection was properly closed",
   "rxFrameStats": {
      "1": 1,
      "8": 1,
      "10": 1
   },
   "rxOctetStats": {
      "2": 1,
      "14": 1,
      "20": 1,
      "129": 1
   },
   "started": "2023-08-16T08:59:08.165Z",
   "trafficStats": null,
   "txFrameStats": {
      "0": 1,
      "1": 1,
      "8": 1,
      "9": 1
   },
   "txOctetStats": {
      "1": 48,
      "8": 1,
      "240": 1
   },
   "wasClean": true,
   "wasCloseHandshakeTimeout": false,
   "wasNotCleanReason": null,
   "wasOpenHandshakeTimeout": false,
   "wasServerConnectionDropTimeout": false,
   "wirelog": [
      [
         "TO",
         [
            240,
            "474554202f20485454502f312e310d0a557365722d4167656e743a204175746f6261686e5465737453756974652f302e382e322d302e31302e390d0a486f7374 ..."
         ],
         false
      ],
      [
         "RO",
         [
            129,
            "485454502f312e312031303120537769746368696e672050726f746f636f6c730d0a557067726164653a20776562736f636b65740d0a436f6e6e656374696f6e ..."
         ]
      ],
      [
         "TF",
         [
            9,
            "fragment1"
         ],
         1,
         false,
         0,
         "8a740e48",
         null,
         1,
         false
      ],
      [
         "TO",
         [
            1,
            "01"
         ],
         true
      ],
      [
         "TF",
         [
            12,
            "ping payload"
         ],
         9,
         true,
         0,
         "d1c730df",
         null,
         1,
         false
      ],
      [
         "TF",
         [
            9,
            "fragment2"
         ],
         0,
         true,
         0,
         "996587c0",
         null,
         1,
         false
      ],
      [
         "TI",
         1
      ],
      [
         "TO",
         [
            1,
            "89"
         ],
         true
      ],
      [
         "TO",
         [
            1,
            "8a"
         ],
         true
      ],
      [
         "TO",
         [
            1,
            "74"
         ],
         true
      ],
      [
         "TO",
         [
            1,
            "0e"
         ],
         true
      ],
      [
         "TO",
         [
            1,
            "48"
         ],
         true
      ],
      [
         "TO",
         [
            1,
            "ec"
         ],
         true
      ],
      [
         "TO",
         [
            1,
            "06"
         ],
         true
      ],
      [
         "TO",
         [
            1,
            "6f"
         ],
         true
      ],
      [
         "TO",
         [
            1,
            "2f"
         ],
         true
      ],
      [
         "TO",
         [
            1,
            "e7"
         ],
         true
      ],
      [
         "TO",
         [
            1,
            "11"
         ],
         true
      ],
      [
         "TO",
         [
            1,
            "60"
         ],
         true
      ],
      [
         "TO",
         [
            1,
            "3c"
         ],
         true
      ],
      [
         "TO",
         [
            1,
            "bb"
         ],
         true
      ],
      [
         "TO",
         [
            1,
            "89"
         ],
         true
      ],
      [
         "TO",
         [
            1,
            "8c"
         ],
         true
      ],
      [
         "TO",
         [
            1,
            "d1"
         ],
         true
      ],
      [
         "TO",
         [
            1,
            "c7"
         ],
         true
      ],
      [
         "TO",
         [
            1,
            "30"
         ],
         true
      ],
      [
         "TO",
         [
            1,
            "df"
         ],
         true
      ],
      [
         "TO",
         [
            1,
            "a1"
         ],
         true
      ],
      [
         "TO",
         [
            1,
            "ae"
         ],
         true
      ],
      [
         "TO",
         [
            1,
            "5e"
         ],
         true
      ],
      [
         "TO",
         [
            1,
            "b8"
         ],
         true
      ],
      [
         "TO",
         [
            1,
            "f1"
         ],
         true
      ],
      [
         "TO",
         [
            1,
            "b7"
         ],
         true
      ],
      [
         "TO",
         [
            1,
            "51"
         ],
         true
      ],
      [
         "TO",
         [
            1,
            "a6"
         ],
         true
      ],
      [
         "TO",
         [
            1,
            "bd"
         ],
         true
      ],
      [
         "TO",
         [
            1,
            "a8"
         ],
         true
      ],
      [
         "TO",
         [
            1,
            "51"
         ],
         true
      ],
      [
         "TO",
         [
            1,
            "bb"
         ],
         true
      ],
      [
         "TO",
         [
            1,
            "80"
         ],
         true
      ],
      [
         "RO",
         [
            14,
            "8a0c70696e67207061796c6f6164"
         ]
      ],
      [
         "RF",
         [
            12,
            "ping payload"
         ],
         10,
         true,
         0,
         false,
         null
      ],
      [
         "TO",
         [
            1,
            "89"
         ],
         true
      ],
      [
         "TO",
         [
            1,
            "99"
         ],
         true
      ],
      [
         "TO",
         [
            1,
            "65"
         ],
         true
      ],
      [
         "TO",
         [
            1,
            "87"
         ],
         true
      ],
      [
         "TO",
         [
            1,
            "c0"
         ],
         true
      ],
      [
         "TO",
         [
            1,
            "ff"
         ],
         true
      ],
      [
         "TO",
         [
            1,
            "17"
         ],
         true
      ],
      [
         "TO",
         [
            1,
            "e6"
         ],
         true
      ],
      [
         "TO",
         [
            1,
            "a7"
         ],
         true
      ],
      [
         "TO",
         [
            1,
            "f4"
         ],
         true
      ],
      [
         "TO",
         [
            1,
            "00"
         ],
         true
      ],
      [
         "TO",
         [
            1,
            "e9"
         ],
         true
      ],
      [
         "TO",
         [
            1,
            "b4"
         ],
         true
      ],
      [
         "TO",
         [
            1,
            "ab"
         ],
         true
      ],
      [
         "RO",
         [
            20,
            "8112667261676d656e7431667261676d656e7432"
         ]
      ],
      [
         "RF",
         [
            18,
            "fragment1fragment2"
         ],
         1,
         true,
         0,
         false,
         null
      ],
      [
         "TF",
         [
            2,
            "0x03e8"
         ],
         8,
         true,
         0,
         "b0f8466b",
         null,
         null,
         false
      ],
      [
         "TO",
         [
            8,
            "8882b0f8466bb310"
         ],
         false
      ],
      [
         "RO",
         [
            2,
            "8800"
         ]
      ],
      [
         "RF",
         [
            0,
            ""
         ],
         8,
         true,
         0,
         false,
         null
      ]
   ]
}