{
   "agent": "Tungstenite",
   "behavior": "OK",
   "behaviorClose": "OK",
   "case": 40,
   "closedByMe": false,
   "createStats": true,
   "createWirelog": true,
   "description": "Send frame with reserved control <b>Opcode = 11</b>.",
   "droppedByMe": false,
   "duration": 1,
   "expectation": "The connection is failed immediately.",
   "expected": {
      "OK": []
   },
   "expectedClose": {
      "closeCode": [
         1002
      ],
      "closedByMe": false,
      "requireClean": false
   },
   "failedByMe": false,
   "httpRequest": "GET / HTTP/1.1\r\nUser-Agent: AutobahnTestSuite/0.8.2-0.10.9\r\nHost: 127.0.0.1:9002\r\nUpgrade: WebSocket\r\nConnection: Upgrade\r\nPragma: no-cache\r\nCache-Control: no-cache\r\nSec-WebSocket-Key: fpMWIJ/vSG7+qPtbR/gNSw==\r\nSec-WebSocket-Version: 13\r\n\r\n",
   "httpResponse": "HTTP/1.1 101 Switching Protocols\r\nUpgrade: websocket\r\nConnection: Upgrade\r\nSec-WebSocket-Accept: hVSAL0pJMEeFCAvOCrzMziQ/VGI=\r\n\r\n",
   "id": "4.2.1",
   "isServer": false,
   "localCloseCode": 1000,
   "localCloseReason": null,
   "received": [],
   "remoteCloseCode": 1002,
   "remoteCloseReason": null,
   "reportCompressionRatio": false,
   "reportTime": false,
   "result": "Actual events match at least one expected.",
   "resultClose": "Connection was properly closed",
   "rxFrameStats": {
      "8": 1
   },
   "rxOctetStats": {
      "4": 1,
      "129": 1
   },
   "started": "2023-08-16T08:59:08.082Z",
   "trafficStats": null,
   "txFrameStats": {
      "8": 1,
      "11": 1
   },
   "txOctetStats": {
      "6": 1,
      "8": 1,
      "240": 1
   },
   "wasClean": true,
   "wasCloseHandshakeTimeout": false,
   "wasNotCleanReason": null,
   "wasOpenHandshakeTimeout": false,
   "wasServerConnectionDropTimeout": false,
   "wirelog": [
      [
         "TO",
         [
            240,
            "474554202f20485454502f312e310d0a557365722d4167656e743a204175746f6261686e5465737453756974652f302e382e322d302e31302e390d0a486f7374 ..."
         ],
         false
      ],
      [
         "RO",
         [
            129,
            "485454502f312e312031303120537769746368696e672050726f746f636f6c730d0a557067726164653a20776562736f636b65740d0a436f6e6e656374696f6e ..."
         ]
      ],
      [
         "TF",
         [
            0,
            ""
         ],
         11,
         true,
         0,
         "41d5b7d4",
         null,
         null,
         false
      ],
      [
         "TO",
         [
            6,
            "8b8041d5b7d4"
         ],
         false
      ],
      [
         "KL",
         1
      ],
      [
         "RO",
         [
            4,
            "880203ea"
         ]
      ],
      [
         "RF",
         [
            2,
            "0x03ea"
         ],
         8,
         true,
         0,
         false,
         null
      ],
      [
         "TF",
         [
            2,
            "0x03e8"
         ],
         8,
         true,
         0,
         "f1609bf9",
         null,
         null,
         false
      ],
      [
         "TO",
         [
            8,
            "8882f1609bf9f288"
         ],
         false
      ]
   ]
}